v 2 0 0.151
v 2 0 0
l 1 2
v 2 0.0127 0.151
v 2 0 0.151
l 3 4
v 2 0 0.151
v 2 0 0
l 5 6
v 2 0 0
v 2 0.0127 0
l 7 8
v 2 0.1143 0.151
v 2 0.0127 0.151
l 9 10
v 2 0.1143 0
v 2 0.1143 0.151
l 11 12
v 2 0.0127 0
v 2 0.1143 0
l 13 14
v 2 0.1143 0
v 2 0.1143 0.151
l 15 16
