# Wavefront OBJ file written 2021-05-18T19:05:46
o walls_edgeMesh

# points : 16
# lines  : 22

# <points count="16">
v 1 0 0.151
v 1 0 0
v 0 0.0127 0
v 1 0.0127 0.151
v 0 0.0127 0.151
v 1 0.0127 0
v 0 0.1143 0
v 0 0.1143 0.151
v 2 0 0
v 2 0 0.151
v 2 0.1143 0
v 2 0.1143 0.151
v 2 0.0127 0
v 2 0.0127 0.151
v 1 0.1143 0
v 1 0.1143 0.151
# </points>

# <edges count="22">
l 4 5
l 3 6
l 6 2
l 2 1
l 1 4
l 7 15
l 16 8
l 9 2
l 1 10
l 15 11
l 12 16
l 6 4
l 5 3
l 3 7
l 8 5
l 7 8
l 13 9
l 10 14
l 9 10
l 11 13
l 14 12
l 12 11
# </edges>
