distance,U_0,U_1,U_2
0,34.5354,-3.96711,-0.0553056
0.00115455,38.6384,-3.95764,-0.0468635
0.00230909,40.0772,-3.85793,-0.0419804
0.00346364,40.9696,-3.75869,-0.0368211
0.00461818,41.574,-3.63776,-0.0322941
0.00577273,42.0026,-3.5197,-0.028581
0.00692727,42.3786,-3.405,-0.0250159
0.00808182,42.7126,-3.30627,-0.0220052
0.00923636,43.0912,-3.19141,-0.0185443
0.0103909,43.4253,-3.12226,-0.0165191
0.0115455,43.7593,-3.05311,-0.0144939
0.0127,44.0965,-2.98297,-0.0124391
0.0138545,44.399,-2.91375,-0.0111386
0.0150091,44.6779,-2.83752,-0.0100387
0.0161636,44.9569,-2.76092,-0.0089266
0.0173182,45.2359,-2.6838,-0.0077971
0.0184727,45.46,-2.59964,-0.00686912
0.0196273,45.6138,-2.51735,-0.00625068
0.0207818,45.7676,-2.43506,-0.00563223
0.0219364,45.922,-2.35244,-0.00500966
0.0230909,46.0202,-2.28032,-0.00456309
0.0242455,46.0924,-2.21187,-0.0041873
0.0254,46.1647,-2.14342,-0.0038115
0.0265545,46.237,-2.07498,-0.00343571
0.0277091,46.2986,-2.00992,-0.00313785
0.0288636,46.3587,-1.94534,-0.00285084
0.0300182,46.4076,-1.88444,-0.00259667
0.0311727,46.4292,-1.83239,-0.00242139
0.0323273,46.4509,-1.78034,-0.00224612
0.0334818,46.4725,-1.7283,-0.00207084
0.0346364,46.4865,-1.67115,-0.00190363
0.0357909,46.4926,-1.60864,-0.00174491
0.0369455,46.4986,-1.54612,-0.00158618
0.0381,46.5003,-1.48674,-0.00143554
0.0392545,46.477,-1.44515,-0.0013308
0.0404091,46.4537,-1.40355,-0.00122606
0.0415636,46.4304,-1.36195,-0.00112132
0.0427182,46.404,-1.3193,-0.00102751
0.0438727,46.3775,-1.2766,-0.000934241
0.0450273,46.3509,-1.2339,-0.000840973
0.0461818,46.3196,-1.19743,-0.000767949
0.0473364,46.2824,-1.16874,-0.000720217
0.0484909,46.2452,-1.14005,-0.000672485
0.0496455,46.2209,-1.10716,-0.000625821
0.0508,46.1975,-1.07395,-0.000579238
0.0519545,46.1741,-1.04073,-0.000532655
0.0531091,46.1556,-1.00888,-0.000494114
0.0542636,46.1466,-0.979679,-0.000471117
0.0554182,46.1375,-0.950475,-0.00044812
0.0565727,46.1304,-0.919691,-0.000424625
0.0577273,46.1251,-0.887479,-0.000400679
0.0588818,46.1199,-0.855267,-0.000376734
0.0600364,46.1147,-0.823055,-0.000352788
0.0611909,46.1094,-0.790843,-0.000328842
0.0623455,46.0864,-0.76558,-0.000316324
0.0635,46.0633,-0.740319,-0.000303806
0.0646545,46.0402,-0.715057,-0.000291289
0.0658091,46.0172,-0.689796,-0.000278772
0.0669636,45.9941,-0.664534,-0.000266254
0.0681182,45.9664,-0.636793,-0.000253643
0.0692727,45.9274,-0.603014,-0.000240804
0.0704273,45.8885,-0.569234,-0.000227965
0.0715818,45.8354,-0.534946,-0.000216134
0.0727364,45.7307,-0.498785,-0.000208012
0.0738909,45.626,-0.462624,-0.00019989
0.0750455,45.5212,-0.426463,-0.000191768
0.0762,45.4165,-0.390301,-0.000183646
0.0773545,45.3072,-0.354266,-0.000175479
0.0785091,45.1936,-0.318355,-0.000167267
0.0796636,45.08,-0.282444,-0.000159056
0.0808182,44.8478,-0.242683,-0.000150922
0.0819727,44.5785,-0.201716,-0.000142812
0.0831273,44.3092,-0.160748,-0.000134702
0.0842818,44.0406,-0.119839,-0.000126495
0.0854364,43.7743,-0.0791181,-0.00011797
0.0865909,43.508,-0.0383971,-0.000109444
0.0877455,43.2416,0.00232385,-0.000100919
0.0889,42.9567,0.0406547,-9.40187e-05
0.0900545,39.9367,0.0468303,-8.59839e-05
0.0912091,36.0143,0.042613,-7.7412e-05
0.0923636,32.0919,0.0383958,-6.88401e-05
0.0935182,28.1695,0.0341786,-6.02683e-05
0.0946727,24.2471,0.0299614,-5.16964e-05
0.0958273,20.3247,0.0257441,-4.31245e-05
0.0969818,16.4023,0.0215269,-3.45526e-05
0.0981364,12.4799,0.0173097,-2.59808e-05
0.0992909,8.55746,0.0130925,-1.74089e-05
0.100445,4.63505,0.00887526,-8.83701e-06
0.1016,4.67633e-13,7.58562e-16,1.71709e-17
