distance,U_0,U_1,U_2
0,0,0,0
0.00115455,9.16642,-1.57436,0.0014792
0.00230909,17.1591,-2.66358,0.039876
0.00346364,24.7239,-3.57597,0.0917289
0.00461818,30.3553,-4.16624,0.132325
0.00577273,31.7034,-4.04283,0.147982
0.00692727,33.0515,-3.91942,0.163639
0.00808182,34.3587,-4.41526,0.188254
0.00923636,35.6611,-4.98324,0.213912
0.0103909,36.5824,-5.34154,0.203865
0.0115455,37.073,-5.46299,0.153484
0.0127,37.5636,-5.58443,0.103102
0.0138545,38.0542,-5.70587,0.0527203
0.0150091,38.7888,-5.62624,-0.00161463
0.0161636,39.5402,-5.53265,-0.056224
0.0173182,39.9622,-5.22334,-0.0701245
0.0184727,40.2322,-4.81448,-0.0652393
0.0196273,40.3661,-4.40465,-0.0583598
0.0207818,40.9153,-4.34721,-0.053958
0.0219364,41.5992,-4.36452,-0.050769
0.0230909,42.1216,-4.32809,-0.0498811
0.0242455,42.3803,-4.20399,-0.0527477
0.0254,42.8898,-4.20931,-0.0608123
0.0265545,42.9204,-3.89841,-0.0627606
0.0277091,42.9987,-3.61738,-0.0610786
0.0288636,43.1955,-3.41082,-0.0503514
0.0300182,43.4233,-3.22386,-0.0426997
0.0311727,43.6998,-3.06767,-0.0398759
0.0323273,43.9441,-2.92898,-0.03793
0.0334818,44.0307,-2.87592,-0.0402804
0.0346364,44.1172,-2.82287,-0.0426308
0.0357909,44.1964,-2.73831,-0.0402514
0.0369455,44.2725,-2.64057,-0.0358922
0.0381,44.3487,-2.54223,-0.0362646
0.0392545,44.4249,-2.44371,-0.0381297
0.0404091,44.5266,-2.38076,-0.0376366
0.0415636,44.6324,-2.32344,-0.0367693
0.0427182,44.689,-2.29868,-0.0363417
0.0438727,44.6556,-2.33334,-0.0367167
0.0450273,44.6223,-2.368,-0.0370916
0.0461818,44.6211,-2.3357,-0.035013
0.0473364,44.6289,-2.28485,-0.0322546
0.0484909,44.6368,-2.23376,-0.0327648
0.0496455,44.6515,-2.17917,-0.0334643
0.0508,44.735,-2.08883,-0.0331947
0.0519545,44.8184,-1.99848,-0.0329252
0.0531091,44.8488,-1.94702,-0.0325285
0.0542636,44.8236,-1.93643,-0.0319981
0.0554182,44.7983,-1.92583,-0.0314677
0.0565727,44.802,-1.87523,-0.0297426
0.0577273,44.8114,-1.81668,-0.027841
0.0588818,44.821,-1.75785,-0.02803
0.0600364,44.8423,-1.69219,-0.0281192
0.0611909,44.8996,-1.60545,-0.0279002
0.0623455,44.9569,-1.51872,-0.0276812
0.0635,44.975,-1.47828,-0.0272691
0.0646545,44.9635,-1.4728,-0.026711
0.0658091,44.952,-1.46733,-0.0261529
0.0669636,44.9457,-1.43488,-0.0251422
0.0681182,44.9402,-1.39759,-0.0241328
0.0692727,44.9348,-1.36014,-0.0241441
0.0704273,44.9339,-1.31662,-0.0241451
0.0715818,44.9424,-1.26003,-0.0241237
0.0727364,44.9509,-1.20345,-0.0241024
0.0738909,44.9347,-1.18927,-0.0240507
0.0750455,44.9007,-1.20559,-0.0239773
0.0762,44.8667,-1.22192,-0.0239038
0.0773545,44.8399,-1.2009,-0.0233867
0.0785091,44.8147,-1.17153,-0.0228031
0.0796636,44.7896,-1.14199,-0.0227043
0.0808182,44.7695,-1.10034,-0.0225054
0.0819727,44.76,-1.03312,-0.0220955
0.0831273,44.7504,-0.965903,-0.0216856
0.0842818,44.722,-0.926454,-0.0213584
0.0854364,44.6779,-0.909955,-0.0210994
0.0865909,44.6339,-0.893457,-0.0208404
0.0877455,44.5392,-0.867546,-0.0202987
0.0889,44.4286,-0.838673,-0.0196765
0.0900545,44.318,-0.809621,-0.0194803
0.0912091,44.187,-0.77579,-0.0192271
0.0923636,44.0056,-0.730123,-0.0188332
0.0935182,43.8241,-0.684457,-0.0184392
0.0946727,43.6287,-0.656436,-0.0181598
0.0958273,43.4188,-0.646497,-0.0179977
0.0969818,43.209,-0.636558,-0.0178357
0.0981364,42.9993,-0.610087,-0.0176442
0.0992909,42.7931,-0.577558,-0.0175402
0.100445,42.5988,-0.545621,-0.0177854
0.1016,42.4127,-0.515108,-0.0180738
0.102755,42.2465,-0.48805,-0.0184668
0.103909,42.0803,-0.460992,-0.0188597
0.105064,41.9141,-0.433933,-0.0192527
0.106218,40.8882,-0.389157,-0.0194911
0.107373,39.7356,-0.340257,-0.0197424
0.108527,38.299,-0.279415,-0.0200865
0.109682,36.8624,-0.218573,-0.0204307
0.110836,28.1581,-0.165026,-0.0158437
0.111991,18.885,-0.112049,-0.0108708
0.113145,9.49955,-0.0570509,-0.00559112
0.1143,1.25604e-12,-7.54335e-15,-7.39266e-16
