distance,U_0,U_1,U_2
0,0,0,0
0.000787879,-5.0706e-08,4.52557e-08,-3.05115e-08
0.00157576,-2.13979e-07,1.57971e-07,-1.22747e-08
0.00236364,-4.62311e-07,1.87381e-07,5.4412e-09
0.00315152,-7.27613e-07,1.48527e-07,1.55441e-08
0.00393939,-7.27613e-07,1.48527e-07,1.55441e-08
0.00472727,-9.37396e-07,1.43517e-07,1.77983e-08
0.00551515,-1.12599e-06,3.90924e-08,1.92985e-08
0.00630303,-1.40052e-06,1.41162e-07,2.07542e-08
0.00709091,-2.01923e-06,2.58048e-07,2.54131e-08
0.00787879,-2.01923e-06,2.58048e-07,2.54131e-08
0.00866667,-1.57667e-06,2.04423e-07,1.73755e-08
0.00945455,-1.62097e-06,2.13343e-07,1.60056e-08
0.0102424,-1.93432e-06,1.80446e-07,1.74649e-08
0.0110303,-1.93432e-06,1.80446e-07,1.74649e-08
0.0118182,-1.89411e-06,9.98189e-08,1.63507e-08
0.0126061,-2.38283e-06,1.09446e-07,1.96458e-08
0.0133939,-2.47191e-06,1.1323e-07,1.94689e-08
0.0141818,-2.25825e-06,1.02758e-07,1.72055e-08
0.0149697,-2.25825e-06,1.02758e-07,1.72055e-08
0.0157576,-3.14251e-06,7.82204e-08,2.40137e-08
0.0165455,-2.5919e-06,9.07836e-08,2.0066e-08
0.0173333,-3.06675e-06,1.32838e-07,2.34325e-08
0.0181212,-3.2248e-06,1.16381e-07,2.48375e-08
0.0189091,-3.2248e-06,1.16381e-07,2.48375e-08
0.019697,-2.96572e-06,1.17525e-07,2.25131e-08
0.0204848,-4.39469e-06,1.98818e-07,3.47555e-08
0.0212727,-3.62912e-06,8.92329e-08,2.88571e-08
0.0220606,-3.62912e-06,8.92329e-08,2.88571e-08
0.0228485,-2.43832e-06,5.81232e-08,1.97376e-08
0.0236364,-2.68948e-06,7.17623e-08,2.21886e-08
0.0244242,-3.73055e-06,4.3561e-08,3.2639e-08
0.0252121,-3.96609e-06,1.28173e-08,3.68033e-08
0.026,-3.96609e-06,1.28173e-08,3.68033e-08
0.0267879,-3.69225e-06,7.52106e-09,3.56827e-08
0.0275758,-3.0953e-06,-5.58207e-09,3.13406e-08
0.0283636,-3.12664e-06,-6.00449e-09,3.34268e-08
0.0291515,-3.61455e-06,-3.57303e-08,4.17873e-08
0.0299394,-3.61455e-06,-3.57303e-08,4.17873e-08
0.0307273,-3.47922e-06,-4.46469e-08,4.28514e-08
0.0315152,-3.08297e-06,-4.85e-08,4.02696e-08
0.032303,-3.17051e-06,-6.40181e-08,4.40592e-08
0.0330909,-3.17051e-06,-6.40181e-08,4.40592e-08
0.0338788,-3.48751e-06,-4.63512e-08,5.2582e-08
0.0346667,-4.65641e-06,4.92136e-08,7.92487e-08
0.0354545,-3.98263e-06,-2.00275e-08,7.23385e-08
0.0362424,-3.41894e-06,-3.48645e-08,6.53619e-08
0.0370303,-3.41894e-06,-3.48645e-08,6.53619e-08
0.0378182,-2.8081e-06,-3.45858e-08,5.66452e-08
0.0386061,-3.23021e-06,-6.05869e-08,6.84242e-08
0.0393939,-3.25979e-06,-2.86389e-08,7.1817e-08
0.0401818,-2.7465e-06,-6.18339e-08,6.33564e-08
0.0409697,-2.7465e-06,-6.18339e-08,6.33564e-08
0.0417576,-3.86343e-06,-8.16648e-08,9.13028e-08
0.0425455,-3.09267e-06,-9.21034e-08,7.53868e-08
0.0433333,-2.37857e-06,-1.02008e-07,6.05785e-08
0.0441212,-2.37857e-06,-1.02008e-07,6.05785e-08
0.0449091,-2.74417e-06,-1.1511e-07,7.17946e-08
0.045697,-3.02101e-06,-1.00781e-07,8.11964e-08
0.0464848,-2.1862e-06,5.31091e-08,6.19037e-08
0.0472727,-2.58425e-06,5.506e-08,7.60187e-08
0.0480606,-2.58425e-06,5.506e-08,7.60187e-08
0.0488485,-2.68446e-06,4.28485e-08,8.29684e-08
0.0496364,-2.52665e-06,7.88754e-10,8.40199e-08
0.0504242,-2.26811e-06,-3.14339e-08,7.97036e-08
0.0512121,-2.10715e-06,-1.6449e-08,7.84816e-08
0.052,-2.10715e-06,-1.6449e-08,7.84816e-08
0.0527879,-1.74357e-06,7.69193e-08,7.21833e-08
0.0535758,-1.54984e-06,5.85365e-08,7.36279e-08
0.0543636,-1.26728e-06,3.48528e-08,6.82243e-08
0.0551515,-1.26728e-06,3.48528e-08,6.82243e-08
0.0559394,-1.06077e-06,1.54274e-08,6.48153e-08
0.0567273,-1.36687e-06,-7.21687e-09,8.57838e-08
0.0575152,-1.60431e-06,-2.00382e-07,1.08838e-07
0.058303,-7.80052e-07,-2.64787e-07,8.02617e-08
0.0590909,-7.80052e-07,-2.64787e-07,8.02617e-08
0.0598788,-3.77026e-07,-2.24339e-07,6.62805e-08
0.0606667,-1.0416e-07,-1.79187e-07,5.21649e-08
0.0614545,6.06085e-08,-1.25862e-07,5.04349e-08
0.0622424,6.06085e-08,-1.25862e-07,5.04349e-08
0.0630303,1.2283e-07,-1.69946e-07,6.41051e-08
0.0638182,2.9228e-07,-1.7879e-07,6.69945e-08
0.0646061,4.43432e-07,-1.33859e-07,5.36629e-08
0.0653939,5.36287e-07,-1.05909e-07,5.15224e-08
0.0661818,5.36287e-07,-1.05909e-07,5.15224e-08
0.0669697,7.1639e-07,-1.12161e-07,6.2694e-08
0.0677576,9.31367e-07,-1.64598e-07,6.76855e-08
0.0685455,1.21087e-06,-2.01683e-07,7.0978e-08
0.0693333,9.6447e-07,-4.4792e-08,4.7985e-08
0.0701212,9.6447e-07,-4.4792e-08,4.7985e-08
0.0709091,1.13674e-06,-9.08624e-08,4.40094e-08
0.071697,1.38069e-06,-1.00124e-07,5.42479e-08
0.0724848,1.98371e-06,-1.36651e-07,7.31439e-08
0.0732727,1.98371e-06,-1.36651e-07,7.31439e-08
0.0740606,1.63693e-06,-1.28857e-07,4.8555e-08
0.0748485,1.75248e-06,-1.54668e-07,4.88006e-08
0.0756364,2.39806e-06,-9.58818e-08,6.05546e-08
0.0764242,2.43809e-06,-3.63327e-08,5.607e-08
0.0772121,2.43809e-06,-3.63327e-08,5.607e-08
0.078,2.07696e-06,-2.93756e-08,4.52079e-08
