distance,U_0,U_1,U_2
0,0,0,0
0.00115455,2.49759,-0.730231,0.000596636
0.00230909,3.063,-1.60581,0.000882342
0.00346364,6.31945,-1.76432,0.000767233
0.00461818,9.52764,-1.85051,0.000591225
0.00577273,12.4915,-1.97884,0.000421553
0.00692727,16.1527,-2.15414,0.000300237
0.00808182,20.0527,-2.63082,0.000252426
0.00923636,24.0051,-3.04328,0.000217336
0.0103909,27.648,-3.39982,0.000172646
0.0115455,30.4485,-3.688,0.000113054
0.0127,32.5476,-3.91078,0.000104467
0.0138545,34.6466,-4.13357,9.58807e-05
0.0150091,36.5966,-4.33188,0.00387983
0.0161636,38.1977,-4.26266,-0.00174093
0.0173182,39.5017,-3.9591,-0.00573687
0.0184727,40.5845,-3.77117,-0.00581881
0.0196273,41.4013,-3.72214,-0.00119837
0.0207818,42.1918,-3.598,0.000917072
0.0219364,42.8959,-3.37279,-0.00156622
0.0230909,43.5009,-3.05196,-0.00520211
0.0242455,44.0095,-2.97426,-0.00336503
0.0254,44.4686,-2.97458,6.96601e-05
0.0265545,44.7527,-2.91084,0.000181914
0.0277091,44.9408,-2.78308,-0.00165175
0.0288636,45.0446,-2.59904,-0.00486372
0.0300182,45.0822,-2.67911,-0.00230771
0.0311727,45.1178,-2.75192,0.000121236
0.0323273,45.1698,-2.71716,0.000141958
0.0334818,45.2122,-2.57737,-0.00165391
0.0346364,45.2477,-2.3829,-0.00426628
0.0357909,45.2385,-2.43761,-0.00147491
0.0369455,45.244,-2.44901,4.95351e-05
0.0381,45.2685,-2.40419,7.57252e-05
0.0392545,45.2911,-2.27561,-0.00159938
0.0404091,45.3091,-2.14618,-0.00326871
0.0415636,45.3041,-2.19825,-0.000883857
0.0427182,45.3149,-2.19768,-7.68402e-05
0.0438727,45.3373,-2.15796,7.08879e-05
0.0450273,45.358,-2.03005,-0.00146089
0.0461818,45.3744,-1.92583,-0.00246049
0.0473364,45.3791,-1.9573,-0.000467148
0.0484909,45.3935,-1.93874,-0.000145463
0.0496455,45.4125,-1.89747,0.000110661
0.0508,45.4237,-1.77932,-0.00125338
0.0519545,45.4303,-1.70257,-0.00179046
0.0531091,45.4296,-1.72963,-0.000182543
0.0542636,45.4329,-1.7096,-4.95699e-05
0.0554182,45.4373,-1.67632,0.000164374
0.0565727,45.4276,-1.58375,-0.00103058
0.0577273,45.4135,-1.53921,-0.00127719
0.0588818,45.3941,-1.57124,1.37061e-05
0.0600364,45.3891,-1.55053,4.72438e-05
0.0611909,45.3866,-1.52093,0.000211526
0.0623455,45.3826,-1.43426,-0.000834154
0.0635,45.3758,-1.39291,-0.000919201
0.0646545,45.3657,-1.40532,0.000135506
0.0658091,45.3689,-1.37629,4.72091e-05
0.0669636,45.3733,-1.34145,0.000196479
0.0681182,45.3779,-1.26356,-0.000654618
0.0692727,45.381,-1.22411,-0.00065794
0.0704273,45.3825,-1.22322,0.000189144
0.0715818,45.3883,-1.19498,9.68811e-05
0.0727364,45.3938,-1.16329,0.000178791
0.0738909,45.3928,-1.10368,-0.000502926
0.0750455,45.3917,-1.07678,-0.00046164
0.0762,45.3905,-1.07892,0.000221565
0.0773545,45.3951,-1.05255,0.000192897
0.0785091,45.3995,-1.02295,0.000182441
0.0796636,45.4007,-0.966498,-0.000369113
0.0808182,45.4029,-0.937581,-0.000310963
0.0819727,45.4058,-0.931006,0.000241034
0.0831273,45.4091,-0.903759,0.000188027
0.0842818,45.4117,-0.874139,0.000191009
0.0854364,45.409,-0.825287,-0.000259493
0.0865909,45.4076,-0.799288,-0.000204009
0.0877455,45.4069,-0.790556,0.000229996
0.0889,45.3914,-0.765352,0.000131859
0.0900545,45.3741,-0.738022,0.000195819
0.0912091,45.343,-0.695264,-0.000167011
0.0923636,45.3135,-0.670727,-9.63698e-05
0.0935182,45.2825,-0.659085,0.000279251
0.0946727,45.1678,-0.631018,0.000221081
0.0958273,45.0436,-0.600602,0.000253379
0.0969818,44.8571,-0.555001,-6.68971e-05
0.0981364,44.672,-0.5221,-8.37611e-07
0.0992909,44.4704,-0.497398,0.000322246
0.100445,43.9229,-0.45917,0.000372506
0.1016,43.3239,-0.41995,0.000274689
0.102755,42.4362,-0.375234,-3.44225e-05
0.103909,41.5454,-0.339572,2.84872e-05
0.105064,40.6611,-0.309117,0.000333568
0.106218,39.8924,-0.273962,0.000532874
0.107373,39.2652,-0.244176,0.000367594
0.108527,38.8962,-0.220847,0.000396881
0.109682,37.8458,-0.192729,0.000430784
0.110836,35.3085,-0.146131,0.000479085
0.111991,30.3733,-0.0875544,0.000490204
0.113145,15.1142,-0.0434175,0.000256946
0.1143,2.31242e-12,-6.86626e-15,4.21526e-17
