distance,U_0,U_1,U_2
0,34.5693,-3.88565,-0.0413584
0.00115455,38.6994,-3.87085,-0.0303878
0.00230909,40.1304,-3.77982,-0.0264297
0.00346364,41.0199,-3.68855,-0.0223113
0.00461818,41.6221,-3.57553,-0.0187024
0.00577273,42.0516,-3.46426,-0.0154193
0.00692727,42.4271,-3.35477,-0.0126778
0.00808182,42.7603,-3.2602,-0.0103434
0.00923636,43.1367,-3.15023,-0.00794275
0.0103909,43.4688,-3.08427,-0.00633844
0.0115455,43.8008,-3.01831,-0.00473412
0.0127,44.1361,-2.95145,-0.00305959
0.0138545,44.4369,-2.88483,-0.00192688
0.0150091,44.7137,-2.8109,-0.00108906
0.0161636,44.9906,-2.73666,-0.000235142
0.0173182,45.2675,-2.66197,0.000641775
0.0184727,45.4894,-2.57984,0.00123066
0.0196273,45.6413,-2.49922,0.00153492
0.0207818,45.7932,-2.41861,0.00183918
0.0219364,45.9457,-2.3377,0.00214803
0.0230909,46.0422,-2.26706,0.0022868
0.0242455,46.1129,-2.20001,0.00235025
0.0254,46.1836,-2.13296,0.00241369
0.0265545,46.2543,-2.06591,0.00247713
0.0277091,46.3147,-2.00157,0.00247248
0.0288636,46.3737,-1.93761,0.00245834
0.0300182,46.4215,-1.87739,0.00244034
0.0311727,46.4423,-1.82614,0.00241305
0.0323273,46.4632,-1.77488,0.00238577
0.0334818,46.4841,-1.72363,0.00235848
0.0346364,46.4973,-1.66717,0.00231257
0.0357909,46.5025,-1.60524,0.00224709
0.0369455,46.5077,-1.54331,0.00218161
0.0381,46.5086,-1.48448,0.00211564
0.0392545,46.4849,-1.44332,0.0020469
0.0404091,46.4612,-1.40216,0.00197816
0.0415636,46.4375,-1.361,0.00190942
0.0427182,46.4107,-1.3186,0.00184183
0.0438727,46.3836,-1.27613,0.0017743
0.0450273,46.3566,-1.23367,0.00170677
0.0461818,46.325,-1.19741,0.00165329
0.0473364,46.2876,-1.16891,0.00161738
0.0484909,46.2501,-1.14041,0.00158146
0.0496455,46.2254,-1.10762,0.00153895
0.0508,46.2017,-1.07451,0.00149593
0.0519545,46.1779,-1.04139,0.00145291
0.0531091,46.1591,-1.00965,0.00141404
0.0542636,46.1496,-0.980552,0.00138319
0.0554182,46.1402,-0.951456,0.00135234
0.0565727,46.1328,-0.920743,0.00132133
0.0577273,46.1272,-0.888569,0.00129018
0.0588818,46.1216,-0.856396,0.00125903
0.0600364,46.1161,-0.824222,0.00122788
0.0611909,46.1105,-0.792048,0.00119673
0.0623455,46.0873,-0.766803,0.00117745
0.0635,46.064,-0.741559,0.00115816
0.0646545,46.0408,-0.716315,0.00113887
0.0658091,46.0176,-0.691071,0.00111959
0.0669636,45.9943,-0.665827,0.0011003
0.0681182,45.9665,-0.638092,0.00107923
0.0692727,45.9273,-0.604293,0.00105382
0.0704273,45.8881,-0.570494,0.00102842
0.0715818,45.8349,-0.536178,0.00100366
0.0727364,45.7302,-0.499956,0.000981311
0.0738909,45.6254,-0.463735,0.000958962
0.0750455,45.5207,-0.427513,0.000936612
0.0762,45.4159,-0.391291,0.000914262
0.0773545,45.3066,-0.355207,0.000893372
0.0785091,45.193,-0.319258,0.000873913
0.0796636,45.0793,-0.283308,0.000854455
0.0808182,44.8472,-0.243494,0.000832546
0.0819727,44.578,-0.202468,0.000809869
0.0831273,44.3088,-0.161443,0.000787192
0.0842818,44.0402,-0.120476,0.000764173
0.0854364,43.774,-0.0796993,0.000740039
0.0865909,43.5078,-0.0389229,0.000715904
0.0877455,43.2416,0.00185354,0.00069177
0.0889,42.9569,0.0402702,0.000667183
0.0900545,39.937,0.0464942,0.000615676
0.0912091,36.0145,0.0423101,0.000555313
0.0923636,32.0921,0.0381261,0.000494951
0.0935182,28.1697,0.033942,0.000434589
0.0946727,24.2473,0.029758,0.000374226
0.0958273,20.3248,0.0255739,0.000313864
0.0969818,16.4024,0.0213898,0.000253502
0.0981364,12.48,0.0172058,0.000193139
0.0992909,8.55757,0.0130217,0.000132777
0.100445,4.63514,0.00883764,7.24148e-05
0.1016,4.67638e-13,7.53416e-16,2.53978e-17
